{
  "LO": [["eea", "core"], "Austria"],
  "EB": [["eea", "core"], "Belgium"],
  "LB": [["eea"], "Bulgaria"],
  "LS": [["eea", "core"], "Switzerland"],
  "LC": [["eea", "core"], "Croatia"],
  "LK": [["eea", "core"], "Czech Republic"],
  "ED": [["eea", "core"], "Germany"],
  "EK": [["eea", "core"], "Denmark"],
  "EE": [["eea"], "Estonia"],
  "LG": [["eea"], "Greece"],
  "LE": [["eea", "core"], "Spain"],
  "EF": [["eea"], "Finland"],
  "LF": [["eea", "core"], "France"],
  "LD": [["eea", "core"], "Croatia"],
  "LH": [["eea", "core"], "Hungary"],
  "EI": [["eea"], "Ireland"],
  "BI": [["eea"], "Iceland"],
  "LI": [["eea", "core"], "Italy"],
  "EY": [["eea"], "Lithuania"],
  "EL": [["eea", "core"], "Luxembourg"],
  "EV": [["eea"], "Latvia"],
  "LY": [[], "Serbia and Montenegro"],
  "LW": [[], "North Macedonia"],
  "LM": [["eea"], "Malta"],
  "EH": [["eea", "core"], "Netherlands"],
  "EN": [["eea", "core"], "Norway"],
  "EP": [["eea"], "Poland"],
  "LP": [["eea"], "Portugal"],
  "LR": [["eea"], "Romania"],
  "LJ": [["eea", "core"], "Slovenia"],
  "LZ": [["eea", "core"], "Slovakia"],
  "LT": [[], "Turkey"],
  "EG": [["eea", "core"], "United Kingdom"]
}