{
  "aar": [
    56.162939,
    10.203921
  ],
  "ant": [
    51.2194475,
    4.4024643
  ],
  "bia": [
    53.1324886,
    23.1688403
  ],
  "dau": [
    55.88333,
    26.53333
  ],
  "mah": [
    49.4874592,
    8.4660395
  ],
  "brs": [
    52.097622,
    23.734051
  ],
  "goi": [
    51.532600,
    9.928440
  ],
  "via": [
    46.615940,
    13.848820
  ],
  "dij": [
    47.322048,
    5.041480
  ],
  "mul": [
    47.749531,
    7.339750
  ],
  "osn": [
    52.267281,
    8.053190
  ],
  "kas": [
    51.3127114,
    9.4797461
  ],
  "brc": [
    48.75897,
    16.88203
  ],
  "kap": [
    41.71889,
    26.36111
  ],
  "kan": [
42.6500015, 26.9833298
  ],
  "she": [
    53.383331, -1.466667
  ]
}